{
    "cordova-plugin-whitelist": {
        "source": {
            "type": "registry",
            "id": "cordova-plugin-whitelist@1"
        },
        "is_top_level": true,
        "variables": {}
    },
    "cordova-plugin-geolocation": {
        "source": {
            "type": "registry",
            "id": "cordova-plugin-geolocation"
        },
        "is_top_level": true,
        "variables": {}
    },
    "cordova-plugin-compat": {
        "source": {
            "type": "registry",
            "id": "cordova-plugin-compat"
        },
        "is_top_level": false,
        "variables": {}
    },
    "cordova-plugin-globalization": {
        "source": {
            "type": "registry",
            "id": "cordova-plugin-globalization"
        },
        "is_top_level": true,
        "variables": {}
    },
    "cordova-plugin-statusbar": {
        "source": {
            "type": "registry",
            "id": "cordova-plugin-statusbar@2.2.1"
        },
        "is_top_level": true,
        "variables": {}
    }
}